…
Viewing the inbuilt dictionary
------------------------------

The inbuilt dictionary can be assigned to an object using the `getDictionary()` function. This function does not take any arguments.

``` r
test <- getDictionary()
#> Parsed with column specification:
#> cols(
#>   entries = col_character(),
#>   broad = col_character(),
#>   narrow = col_character()
#> )
test
#> # A tibble: 56 x 3
#>    entries     broad              narrow                
#>    <chr>       <chr>              <chr>                 
#>  1 female      female             female                
#>  2 male        male               male                  
#>  3 androgynous androgynous        sex and gender diverse
#>  4 non-binary  non-binary         sex and gender diverse
#>  5 nonbinary   non-binary         sex and gender diverse
#>  6 non binary  non-binary         sex and gender diverse
#>  7 trans       transgender        sex and gender diverse
#>  8 trans man   transgender male   male                  
#>  9 trans woman transgender female female                
#> 10 transman    transgender male   male                  
#> # ... with 46 more rows
```
…
